<?xml version="1.0" encoding="UTF-8"?>
<svg width="14px" height="14px" viewBox="0 0 14 14" version="1.1" xmlns="http://www.w3.org/2000/svg" xmlns:xlink="http://www.w3.org/1999/xlink">
    <!-- Generator: sketchtool 56.3 (101010) - https://sketch.com -->
    <title>CA3DF7A8-2F7C-4397-89A9-8C6E8D097FF4</title>
    <desc>Created with sketchtool.</desc>
    <g id="Mobile-Final" stroke="none" stroke-width="1" fill="none" fill-rule="evenodd">
        <g id="03-Card-Payment" transform="translate(-314.000000, -307.000000)">
            <g id="CC" transform="translate(16.000000, 257.000000)">
                <g id="Group" transform="translate(0.000000, 33.000000)">
                    <g id="HDFC">
                        <g id="tick-mark-Select" transform="translate(298.000000, 17.000000)">
                            <path d="M7,14 L7,14 C3.13366667,14 0,10.8651667 0,7 C0,3.13483333 3.13366667,0 7,0 C10.8651667,0 14,3.13483333 14,7 C14,10.8651667 10.8651667,14 7,14" id="Fill-1" fill="#5AA804"></path>
                            <polyline id="Stroke-5" stroke="#FFFFFF" stroke-linecap="round" stroke-linejoin="round" points="4 7.29384615 6.07784615 9.24430769 10.3987692 5"></polyline>
                        </g>
                    </g>
                </g>
            </g>
        </g>
    </g>
</svg>