<?xml version="1.0" encoding="UTF-8"?>
<svg width="16px" height="16px" viewBox="0 0 16 16" version="1.1" xmlns="http://www.w3.org/2000/svg" xmlns:xlink="http://www.w3.org/1999/xlink">
    <!-- Generator: sketchtool 56.3 (101010) - https://sketch.com -->
    <title>C2178069-D5B3-4C4C-9968-43D719ADD263</title>
    <desc>Created with sketchtool.</desc>
    <g id="Mobile" stroke="none" stroke-width="1" fill="none" fill-rule="evenodd">
        <g id="01-Default" transform="translate(-313.000000, -657.000000)" stroke="#CDD5DF">
            <g id="Wallets" transform="translate(16.000000, 496.000000)">
                <g id="Group-Copy-4" transform="translate(0.000000, 145.000000)">
                    <g id="HDFC">
                        <g id="tick-mark" transform="translate(298.000000, 17.000000)">
                            <path d="M7,14 L7,14 C3.13366667,14 0,10.8651667 0,7 C0,3.13483333 3.13366667,0 7,0 C10.8651667,0 14,3.13483333 14,7 C14,10.8651667 10.8651667,14 7,14" id="Fill-1"></path>
                            <polyline id="Stroke-5" stroke-linecap="round" stroke-linejoin="round" points="4 7.29384615 6.07784615 9.24430769 10.3987692 5"></polyline>
                        </g>
                    </g>
                </g>
            </g>
        </g>
    </g>
</svg>