<?xml version="1.0" encoding="UTF-8"?>
<svg width="34px" height="46px" viewBox="0 0 34 46" version="1.1" xmlns="http://www.w3.org/2000/svg" xmlns:xlink="http://www.w3.org/1999/xlink">
    <!-- Generator: sketchtool 56.3 (101010) - https://sketch.com -->
    <title>5FFF4814-C583-4199-A044-2C3A14D73EB3</title>
    <desc>Created with sketchtool.</desc>
    <g id="Mobile" stroke="none" stroke-width="1" fill="none" fill-rule="evenodd">
        <g id="01-Default" transform="translate(-36.000000, -90.000000)">
            <g id="Top" transform="translate(16.000000, 73.000000)">
                <g id="Mutual-Funds" transform="translate(21.000000, 18.000000)">
                    <g id="Icon">
                        <path d="M24.7267647,12.3943178 C24.7267647,17.3506466 20.8061765,21.3679068 15.9691176,21.3679068 C11.1326471,21.3679068 7.21147059,17.3506466 7.21147059,12.3943178 C7.21147059,7.43798904 11.1326471,3.42012603 15.9691176,3.42012603 C20.8061765,3.42012603 24.7267647,7.43798904 24.7267647,12.3943178" id="Fill-1" fill="#FFD032"></path>
                        <path d="M16.0072353,21.3988877 L16.0072353,43.4133534" id="Stroke-3" stroke="#1B325E" stroke-width="1.20784312" stroke-linecap="round" stroke-linejoin="round"></path>
                        <path d="M8.95988235,43.4135945 L13.5945882,43.4135945" id="Stroke-5" stroke="#1B325E" stroke-width="1.20784312" stroke-linecap="round" stroke-linejoin="round"></path>
                        <path d="M18.7978824,43.4135945 L23.4325882,43.4135945" id="Stroke-7" stroke="#1B325E" stroke-width="1.20784312" stroke-linecap="round" stroke-linejoin="round"></path>
                        <path d="M4.75317647,34.4037205 C0.898470588,32.2109534 0.000235294118,24.315063 0.000235294118,24.315063 C3.03494118,23.9377479 7.57082353,26.5687068 7.57082353,26.5687068 C9.482,27.8459123 10.0884706,29.287063 10.1578824,30.5172548 C10.2767059,32.6111726 8.76082353,34.5104055 6.73317647,34.7961041 C6.71376471,34.7991178 6.69494118,34.8015288 6.67552941,34.8039397 C6.01258824,34.8877205 5.33670588,34.7358301 4.75317647,34.4037205" id="Fill-9" fill="#84EB9C"></path>
                        <path d="M15.8400588,40.9679178 C15.8400588,40.9679178 10.973,34.3365753 6.58770588,30.9027671" id="Stroke-11" stroke="#1B325E" stroke-width="1.20784312" stroke-linecap="round" stroke-linejoin="round"></path>
                        <path d="M4.75317647,34.4037205 C0.898470588,32.2109534 0.000235294118,24.315063 0.000235294118,24.315063 C3.03494118,23.9377479 7.57082353,26.5687068 7.57082353,26.5687068 C9.482,27.8459123 10.0884706,29.287063 10.1578824,30.5172548 C10.2108235,31.4539123 9.93729412,32.3525973 9.43611765,33.084926" id="Stroke-13" stroke="#1B325E" stroke-width="1.20784312" stroke-linecap="round" stroke-linejoin="round"></path>
                        <path d="M24.7267647,12.3943178 C24.7267647,17.3506466 20.8061765,21.3679068 15.9691176,21.3679068 C11.1326471,21.3679068 7.21147059,17.3506466 7.21147059,12.3943178 C7.21147059,7.43798904 11.1326471,3.42012603 15.9691176,3.42012603 C20.8061765,3.42012603 24.7267647,7.43798904 24.7267647,12.3943178 Z" id="Stroke-15" stroke="#1B325E" stroke-width="1.20784312" stroke-linecap="round" stroke-linejoin="round"></path>
                        <path d="M15.8400588,-0.000120547945 L15.8400588,3.45176986" id="Stroke-17" stroke="#1B325E" stroke-width="1.20784312" stroke-linecap="round" stroke-linejoin="round"></path>
                        <path d="M7.35888235,3.64693699 L9.723,6.10551233" id="Stroke-19" stroke="#1B325E" stroke-width="1.20784312" stroke-linecap="round" stroke-linejoin="round"></path>
                        <path d="M3.81511765,12.4013699 L7.18335294,12.4369315" id="Stroke-21" stroke="#1B325E" stroke-width="1.20784312" stroke-linecap="round" stroke-linejoin="round"></path>
                        <path d="M7.45829412,21.3035342 L9.83476471,18.8576164" id="Stroke-23" stroke="#1B325E" stroke-width="1.20784312" stroke-linecap="round" stroke-linejoin="round"></path>
                        <path d="M24.7009412,3.83233973 L22.2485882,6.19809315" id="Stroke-25" stroke="#1B325E" stroke-width="1.20784312" stroke-linecap="round" stroke-linejoin="round"></path>
                        <path d="M28.0683529,12.4354849 L24.6995294,12.4035397" id="Stroke-27" stroke="#1B325E" stroke-width="1.20784312" stroke-linecap="round" stroke-linejoin="round"></path>
                        <path d="M24.339,21.3888822 L22.0266471,18.879074" id="Stroke-29" stroke="#1B325E" stroke-width="1.20784312" stroke-linecap="round" stroke-linejoin="round"></path>
                        <path d="M13.2717059,8.18514521 L18.667,8.18514521" id="Stroke-31" stroke="#052F5F" stroke-width="1.20784312" stroke-linecap="round" stroke-linejoin="round"></path>
                        <path d="M13.2717059,10.8532932 L18.667,10.8532932" id="Stroke-33" stroke="#052F5F" stroke-width="1.20784312" stroke-linecap="round" stroke-linejoin="round"></path>
                        <path d="M14.8669412,8.18514521 C16.1292941,8.18514521 17.1522353,9.46295342 17.1522353,11.0391178 C17.1522353,12.6158849 16.1292941,13.4368164 14.8669412,13.4368164 L13.2716471,13.4368164 L17.2022353,17.4305699" id="Stroke-35" stroke="#052F5F" stroke-width="1.20784312" stroke-linecap="round" stroke-linejoin="round"></path>
                        <path d="M27.0940588,32.0115671 C30.9481765,29.8188 31.847,21.9229096 31.847,21.9229096 C28.8122941,21.5455945 24.2764118,24.1765534 24.2764118,24.1765534 C22.3652353,25.4537589 21.7587647,26.8949096 21.6893529,28.1251014 C21.5705294,30.2190192 23.0864118,32.1188548 25.1140588,32.4045534 C25.1334706,32.4069644 25.1522941,32.4099781 25.1717059,32.412389 C25.8340588,32.4961699 26.5105294,32.3436767 27.0940588,32.0115671" id="Fill-37" fill="#84EB9C"></path>
                        <path d="M16.0072353,38.5758247 C16.0072353,38.5758247 20.8742941,31.9444822 25.2595882,28.510674" id="Stroke-39" stroke="#1B325E" stroke-width="1.20784312" stroke-linecap="round" stroke-linejoin="round"></path>
                        <path d="M27.0940588,32.0115671 C30.9481765,29.8188 31.847,21.9229096 31.847,21.9229096 C28.8122941,21.5455945 24.2764118,24.1765534 24.2764118,24.1765534 C22.3652353,25.4537589 21.7587647,26.8949096 21.6893529,28.1251014 C21.6364118,29.0617589 21.9099412,29.9604438 22.4111176,30.6927726" id="Stroke-41" stroke="#1B325E" stroke-width="1.20784312" stroke-linecap="round" stroke-linejoin="round"></path>
                    </g>
                </g>
            </g>
        </g>
    </g>
</svg>