<?xml version="1.0" encoding="UTF-8"?>
<<<<<<< HEAD
<svg width="23px" height="23px" viewBox="0 0 23 23" version="1.1" xmlns="http://www.w3.org/2000/svg" xmlns:xlink="http://www.w3.org/1999/xlink">
    <!-- Generator: sketchtool 56.3 (101010) - https://sketch.com -->
    <title>74723208-EB8E-4DE3-A704-5D0F4E4DB74E</title>
    <desc>Created with sketchtool.</desc>
    <g id="Desktop-Final" stroke="none" stroke-width="1" fill="none" fill-rule="evenodd">
        <g id="07-UPI" transform="translate(-559.000000, -345.000000)" fill="#556080" fill-rule="nonzero">
            <g id="Quick-Netbanking" transform="translate(415.000000, 185.000000)">
                <g id="Others" transform="translate(128.000000, 144.000000)">
                    <g id="menu" transform="translate(16.000000, 16.000000)">
                        <circle id="Oval" cx="3.11111111" cy="19.5555556" r="3.11111111"></circle>
                        <circle id="Oval" cx="11.3333333" cy="19.5555556" r="3.11111111"></circle>
                        <circle id="Oval" cx="19.5555556" cy="19.5555556" r="3.11111111"></circle>
                        <circle id="Oval" cx="3.11111111" cy="11.3333333" r="3.11111111"></circle>
                        <circle id="Oval" cx="11.3333333" cy="11.3333333" r="3.11111111"></circle>
                        <circle id="Oval" cx="19.5555556" cy="11.3333333" r="3.11111111"></circle>
                        <circle id="Oval" cx="3.11111111" cy="3.11111111" r="3.11111111"></circle>
                        <circle id="Oval" cx="11.3333333" cy="3.11111111" r="3.11111111"></circle>
                        <circle id="Oval" cx="19.5555556" cy="3.11111111" r="3.11111111"></circle>
=======
<svg width="36px" height="36px" viewBox="0 0 36 36" version="1.1" xmlns="http://www.w3.org/2000/svg" xmlns:xlink="http://www.w3.org/1999/xlink">
    <!-- Generator: sketchtool 56.3 (101010) - https://sketch.com -->
    <title>588C3074-2E84-495A-9941-A597255A3C10</title>
    <desc>Created with sketchtool.</desc>
    <defs>
        <circle id="path-1" cx="18" cy="18" r="18"></circle>
        <mask id="mask-2" maskContentUnits="userSpaceOnUse" maskUnits="objectBoundingBox" x="0" y="0" width="36" height="36" fill="white">
            <use xlink:href="#path-1"></use>
        </mask>
    </defs>
    <g id="Mobile" stroke="none" stroke-width="1" fill="none" fill-rule="evenodd">
        <g id="01-Default" transform="translate(-306.000000, -403.000000)">
            <g id="Netbanking" transform="translate(16.000000, 370.000000)">
                <g id="Bank-Icon-Copy" transform="translate(290.000000, 33.000000)">
                    <g id="add-bank">
                        <use id="Holder" stroke="#2C3BD9" mask="url(#mask-2)" stroke-width="2" fill="#FFFFFF" stroke-dasharray="4,3" xlink:href="#path-1"></use>
                        <path d="M19.2727273,16.7272727 L23.7272727,16.7272727 C24.4301806,16.7272727 25,17.2970921 25,18 C25,18.7029079 24.4301806,19.2727273 23.7272727,19.2727273 L19.2727273,19.2727273 L19.2727273,23.7272727 C19.2727273,24.4301806 18.7029079,25 18,25 C17.2970921,25 16.7272727,24.4301806 16.7272727,23.7272727 L16.7272727,19.2727273 L12.2727273,19.2727273 C11.5698194,19.2727273 11,18.7029079 11,18 C11,17.2970921 11.5698194,16.7272727 12.2727273,16.7272727 L16.7272727,16.7272727 L16.7272727,12.2727273 C16.7272727,11.5698194 17.2970921,11 18,11 C18.7029079,11 19.2727273,11.5698194 19.2727273,12.2727273 L19.2727273,16.7272727 Z" id="Path" fill="#1B1DC7"></path>
>>>>>>> PG_Mobile_Version
                    </g>
                </g>
            </g>
        </g>
    </g>
</svg>