<?xml version="1.0" encoding="UTF-8"?>
<svg width="25px" height="40px" viewBox="0 0 25 40" version="1.1" xmlns="http://www.w3.org/2000/svg" xmlns:xlink="http://www.w3.org/1999/xlink">
    <!-- Generator: Sketch 58 (84663) - https://sketch.com -->
    <title>NPS PRODUCT LOGO</title>
    <desc>Created with Sketch.</desc>
    <g id="Desktop-Final" stroke="none" stroke-width="1" fill="none" fill-rule="evenodd">
        <g id="PG-STATES" transform="translate(-810.000000, -1673.000000)">
            <g id="NPS-PRODUCT-LOGO" transform="translate(811.000000, 1674.000000)">
                <g id="Group-47" transform="translate(0.000000, 21.038961)">
                    <g id="Group-46">
                        <path d="M18.4685484,13.6743359 L19.1153702,16.8895938 C19.1860611,17.2399065 18.9178284,17.567441 18.5600539,17.567441 L15.8498431,17.567441 C15.6149923,17.567441 15.4048832,17.4225247 15.3208396,17.2029902 L14.541276,15.1627721" id="Fill-2" fill="#FFC8C8"></path>
                        <path d="M10.134405,15.0987576 L9.74756871,17.1044156 C9.69572871,17.3734338 9.46087782,17.567441 9.18714693,17.567441 L5.95107445,17.567441 C5.55481267,17.567441 5.27911814,17.1735356 5.41460904,16.8012302 L6.55351804,13.6743359" id="Fill-4" fill="#FFC8C8"></path>
                        <path d="M21.5835038,7.56251816 L23.4544564,7.56251816 L23.4544564,11.4461979 L20.7536711,11.4461979 C20.7536711,11.4461979 21.969162,9.71427073 21.5835038,7.56251816" id="Fill-6" fill="#FFC8C8"></path>
                        <path d="M16.3317195,2.19970985 C16.3317195,2.19970985 18.6979011,0.289877266 21.6622063,1.05176812 C21.6622063,1.05176812 19.8866865,3.02325887 19.8309192,4.32279332 C19.8309192,4.32279332 18.2902502,2.83789162 16.3317195,2.19970985" id="Fill-8" fill="#FFC8C8"></path>
                        <path d="M3.36178447,8.45306646 C3.36178447,12.253488 7.45871506,15.3340405 12.5119365,15.3340405 C17.5655507,15.3340405 21.6624812,12.253488 21.6624812,8.45306646 C21.6624812,4.65264493 17.5655507,1.57209244 12.5119365,1.57209244 C7.45871506,1.57209244 3.36178447,4.65264493 3.36178447,8.45306646" id="Fill-10" fill="#FFC8C8"></path>
                        <path d="M16.1700729,2.14409967 C15.3767639,1.88372151 14.5249385,1.70542334 13.6334477,1.62334335" id="Stroke-12" stroke="#1B325E" stroke-width="0.785454485" stroke-linecap="round" stroke-linejoin="round"></path>
                        <path d="M21.5719969,7.48236253 C21.3611024,6.3603408 20.7904697,5.32471906 19.9500334,4.44461731" id="Stroke-14" stroke="#1B325E" stroke-width="0.785454485" stroke-linecap="round" stroke-linejoin="round"></path>
                        <path d="M16.3317195,2.19970985 C16.3317195,2.19970985 18.6979011,0.289877266 21.6622063,1.05176812 C21.6622063,1.05176812 19.8866865,3.02325887 19.8309192,4.32279332" id="Stroke-16" stroke="#1B325E" stroke-width="0.785454485" stroke-linecap="round" stroke-linejoin="round"></path>
                        <path d="M21.5835038,7.56251816 L22.5299765,7.56251816 C23.0405219,7.56251816 23.4544564,7.97645268 23.4544564,8.48699809 L23.4544564,10.5213252 C23.4544564,11.0318706 23.0405219,11.4461979 22.5299765,11.4461979 L20.7536711,11.4461979" id="Stroke-18" stroke="#1B325E" stroke-width="0.785454485" stroke-linecap="round" stroke-linejoin="round"></path>
                        <path d="M18.4685484,13.6743359 L19.1153702,16.8895938 C19.1860611,17.2399065 18.9178284,17.567441 18.5600539,17.567441 L15.8498431,17.567441 C15.6149923,17.567441 15.4048832,17.4225247 15.3208396,17.2029902 L14.541276,15.1627721" id="Stroke-20" stroke="#1B325E" stroke-width="0.785454485" stroke-linecap="round" stroke-linejoin="round"></path>
                        <path d="M10.134405,15.0987576 L9.74756871,17.1044156 C9.69572871,17.3734338 9.46087782,17.567441 9.18714693,17.567441 L5.95107445,17.567441 C5.55481267,17.567441 5.27911814,17.1735356 5.41460904,16.8012302 L6.55351804,13.6743359" id="Stroke-22" stroke="#1B325E" stroke-width="0.785454485" stroke-linecap="round" stroke-linejoin="round"></path>
                        <path d="M14.8925705,4.85332855 C14.8925705,4.85332855 11.9494725,3.31344503 8.83553823,4.85332855" id="Stroke-24" stroke="#1B325E" stroke-width="0.785454485" stroke-linecap="round" stroke-linejoin="round"></path>
                        <path d="M0.109099628,6.0510681 C0.109099628,6.0510681 0.724895944,8.25269702 2.33350673,7.56267525 C2.33350673,7.56267525 3.21517939,7.10711165 3.49165937,7.29758437" id="Stroke-26" stroke="#1B325E" stroke-width="0.785454485" stroke-linecap="round" stroke-linejoin="round"></path>
                        <path d="M18.2240364,7.11304183 C18.4612437,7.52422726 18.8457236,7.74611815 19.0825382,7.6098418 C19.31896,7.47277999 19.3185672,7.0289982 19.08136,6.61781278 C18.8441527,6.20702008 18.4600655,5.98473647 18.223251,6.12179827 C17.9864364,6.25807463 17.9868292,6.70224914 18.2240364,7.11304183" id="Fill-28" fill="#052F5F"></path>
                        <path d="M18.5930037,13.5949657 C18.6267782,13.5721875 18.66016,13.5498021 18.6935418,13.5266312 C19.5437963,12.9406821 20.2459926,12.235344 20.753789,11.4459622" id="Stroke-34" stroke="#1B325E" stroke-width="0.785454485" stroke-linecap="round" stroke-linejoin="round"></path>
                        <path d="M10.134405,15.0995038 C10.8923686,15.2526674 11.6896049,15.3343547 12.5119758,15.3343547 C13.1199175,15.3343547 13.7137211,15.2895838 14.2882811,15.2047547 C14.3731102,15.1917947 14.4575465,15.1784419 14.5415902,15.1643038" id="Stroke-36" stroke="#1B325E" stroke-width="0.785454485" stroke-linecap="round" stroke-linejoin="round"></path>
                        <path d="M5.7992461,3.77713809 C4.28646076,5.00441072 3.36158811,6.64758151 3.36158811,8.45294864 C3.36158811,10.5418648 4.59907165,12.4132102 6.55288968,13.6750428" id="Stroke-38" stroke="#1B325E" stroke-width="0.785454485" stroke-linecap="round" stroke-linejoin="round"></path>
                    </g>
                </g>
                <g id="Group-45" transform="translate(1.402597, 0.000000)">
                    <g id="Group-44">
                        <path d="M15.0284656,7.08974316 C15.0284656,9.92482921 12.6451722,12.2222836 9.70560877,12.2222836 C6.76562453,12.2222836 4.38275195,9.92482921 4.38275195,7.08974316 C4.38275195,4.2546571 6.76562453,1.95678881 9.70560877,1.95678881 C12.6451722,1.95678881 15.0284656,4.2546571 15.0284656,7.08974316" id="Fill-2" fill="#FFD032" fill-rule="nonzero"></path>
                        <path d="M9.72887786,12.2402047 L9.72887786,24.8329533" id="Stroke-4" stroke="#1B325E" stroke-width="0.841558391" stroke-linecap="round" stroke-linejoin="round"></path>
                        <path d="M2.88873333,19.6791808 C0.546676331,18.4251208 8.41558391e-05,13.9084355 8.41558391e-05,13.9084355 C1.84478015,13.6923896 4.60130466,15.1976754 4.60130466,15.1976754 C5.76265524,15.9281757 6.1316786,16.752627 6.17417729,17.4558111 C6.24570976,18.6535832 5.32504488,19.7400213 4.09216183,19.9039183 C4.08038002,19.9055738 4.06901898,19.9068154 4.05681638,19.9084709 C3.65413069,19.9560673 3.24387098,19.8691522 2.88873333,19.6791808" id="Fill-10" fill="#84EB9C"></path>
                        <path d="M9.62696514,23.4339936 C9.62696514,23.4339936 6.66888739,19.6407726 4.00409275,17.6764925" id="Stroke-12" stroke="#1B325E" stroke-width="0.841558391" stroke-linecap="round" stroke-linejoin="round"></path>
                        <path d="M2.88873333,19.6791808 C0.546676331,18.4251208 8.41558391e-05,13.9084355 8.41558391e-05,13.9084355 C1.84478015,13.6923896 4.60130466,15.1976754 4.60130466,15.1976754 C5.76265524,15.9281757 6.1316786,16.752627 6.17417729,17.4558111 C6.20615651,17.9922011 6.03910717,18.5058276 5.73488381,18.9246754" id="Stroke-14" stroke="#1B325E" stroke-width="0.841558391" stroke-linecap="round" stroke-linejoin="round"></path>
                        <path d="M15.0284656,7.08974316 C15.0284656,9.92482921 12.6451722,12.2222836 9.70560877,12.2222836 C6.76562453,12.2222836 4.38275195,9.92482921 4.38275195,7.08974316 C4.38275195,4.2546571 6.76562453,1.95678881 9.70560877,1.95678881 C12.6451722,1.95678881 15.0284656,4.2546571 15.0284656,7.08974316 Z" id="Stroke-16" stroke="#1B325E" stroke-width="0.841558391" stroke-linecap="round" stroke-linejoin="round"></path>
                        <path d="M9.62696514,0 L9.62696514,1.97421321" id="Stroke-18" stroke="#1B325E" stroke-width="0.841558391" stroke-linecap="round" stroke-linejoin="round"></path>
                        <path d="M4.47241999,2.08637501 L5.90938095,3.49232936" id="Stroke-20" stroke="#1B325E" stroke-width="0.841558391" stroke-linecap="round" stroke-linejoin="round"></path>
                        <path d="M2.31878791,7.09338531 L4.36545792,7.11407937" id="Stroke-22" stroke="#1B325E" stroke-width="0.841558391" stroke-linecap="round" stroke-linejoin="round"></path>
                        <path d="M4.53284389,12.186069 L5.97737886,10.7867368" id="Stroke-24" stroke="#1B325E" stroke-width="0.841558391" stroke-linecap="round" stroke-linejoin="round"></path>
                        <path d="M15.0124339,2.1922872 L13.522034,3.54567865" id="Stroke-26" stroke="#1B325E" stroke-width="0.841558391" stroke-linecap="round" stroke-linejoin="round"></path>
                        <path d="M17.0588094,7.11316883 L15.0121394,7.09495806" id="Stroke-28" stroke="#1B325E" stroke-width="0.841558391" stroke-linecap="round" stroke-linejoin="round"></path>
                        <path d="M14.7926189,12.2345345 L13.3872163,10.7987807" id="Stroke-30" stroke="#1B325E" stroke-width="0.841558391" stroke-linecap="round" stroke-linejoin="round"></path>
                        <path d="M8.06587432,4.6820308 L11.3450066,4.6820308" id="Stroke-32" stroke="#1B325E" stroke-width="0.841558391" stroke-linecap="round" stroke-linejoin="round"></path>
                        <path d="M8.06587432,6.20821764 L11.3450066,6.20821764" id="Stroke-34" stroke="#1B325E" stroke-width="0.841558391" stroke-linecap="round" stroke-linejoin="round"></path>
                        <path d="M9.03564414,4.6820308 C9.80272461,4.6820308 10.4246363,5.41294496 10.4246363,6.31437816 C10.4246363,7.21622525 9.80272461,7.68598038 9.03564414,7.68598038 L8.06574809,7.68598038 L10.4549324,9.97019059" id="Stroke-36" stroke="#1B325E" stroke-width="0.841558391" stroke-linecap="round" stroke-linejoin="round"></path>
                        <path d="M16.4671097,18.3110138 C18.8091667,17.0569538 19.3557588,12.5402685 19.3557588,12.5402685 C17.5110629,12.3242226 14.7545383,13.8295084 14.7545383,13.8295084 C13.5931878,14.5600087 13.2241644,15.3840461 13.1816657,16.0876441 C13.1101332,17.2854162 14.0307981,18.3718543 15.2636812,18.5357512 C15.275463,18.5374068 15.286824,18.5386484 15.2990266,18.5403039 C15.7017123,18.5879003 16.111972,18.5009852 16.4671097,18.3110138" id="Fill-38" fill="#84EB9C"></path>
                        <path d="M9.72887786,22.065868 C9.72887786,22.065868 12.6869556,18.272647 15.3517503,16.3083669" id="Stroke-40" stroke="#1B325E" stroke-width="0.841558391" stroke-linecap="round" stroke-linejoin="round"></path>
                        <path d="M16.4671097,18.3110138 C18.8091667,17.0569538 19.3557588,12.5402685 19.3557588,12.5402685 C17.5110629,12.3242226 14.7545383,13.8295084 14.7545383,13.8295084 C13.5931878,14.5600087 13.2241644,15.3840461 13.1816657,16.0876441 C13.1496865,16.6240341 13.3167358,17.1376606 13.6209592,17.5565084" id="Stroke-42" stroke="#1B325E" stroke-width="0.841558391" stroke-linecap="round" stroke-linejoin="round"></path>
                    </g>
                </g>
            </g>
        </g>
    </g>
</svg>