<?xml version="1.0" encoding="UTF-8"?>
<svg width="40px" height="37px" viewBox="0 0 40 37" version="1.1" xmlns="http://www.w3.org/2000/svg" xmlns:xlink="http://www.w3.org/1999/xlink">
    <!-- Generator: Sketch 58 (84663) - https://sketch.com -->
    <title>Gold prod icon</title>
    <desc>Created with Sketch.</desc>
    <g id="Desktop-Final" stroke="none" stroke-width="1" fill="none" fill-rule="evenodd">
        <g id="PG-STATES" transform="translate(-849.000000, -1724.000000)">
            <g id="Gold-prod-icon" transform="translate(849.000000, 1725.000000)">
                <polygon id="Fill-2" fill="#FFFFFF" points="16.3514194 24.3449235 3.36883871 24.3449235 0.732709677 34.5452691 19.2365806 34.5452691"></polygon>
                <polygon id="Fill-3" fill="#FFFFFF" points="36.5574839 24.3449235 23.5749032 24.3449235 20.9387742 34.5452691 39.4426452 34.5452691"></polygon>
                <polygon id="Fill-4" fill="#FFFFFF" points="26.3640645 14.201842 13.3814839 14.201842 10.7453548 24.4015457 29.2492258 24.4015457"></polygon>
                <polygon id="Fill-5" fill="#FFFFFF" points="16.3514194 24.3449235 3.36883871 24.3449235 0.732709677 34.5452691 19.2365806 34.5452691"></polygon>
                <polygon id="Fill-6" fill="#FFFFFF" points="36.5574839 24.3449235 23.5742581 24.3449235 20.9387742 34.5452691 39.4426452 34.5452691"></polygon>
                <polygon id="Fill-7" fill="#FFD032" points="16.1762581 24.3724642 3.19303226 24.3724642 0.557548387 34.6440691 19.0614194 34.6440691"></polygon>
                <polygon id="Fill-8" fill="#FFD032" points="36.3823226 24.3724642 23.3990968 24.3724642 20.7636129 34.6440691 39.2674839 34.6440691"></polygon>
                <polygon id="Fill-9" fill="#FFD032" points="26.2796129 14.1369383 13.2963871 14.1369383 10.6602581 24.336642 29.1647742 24.336642"></polygon>
                <polygon id="Stroke-10" stroke="#1B325E" stroke-linecap="round" stroke-linejoin="round" points="16.1762581 24.3724642 3.19303226 24.3724642 0.557548387 34.6440691 19.0614194 34.6440691"></polygon>
                <polygon id="Stroke-11" stroke="#1B325E" stroke-linecap="round" stroke-linejoin="round" points="36.3823226 24.3724642 23.3990968 24.3724642 20.7636129 34.6440691 39.2674839 34.6440691"></polygon>
                <polygon id="Stroke-12" stroke="#1B325E" stroke-linecap="round" stroke-linejoin="round" points="26.2796129 14.1369383 13.2963871 14.1369383 10.6602581 24.336642 29.1647742 24.336642"></polygon>
                <path d="M20.1178065,0.0225975309 L20.1178065,3.97909136" id="Stroke-13" stroke="#1B325E" stroke-linecap="round" stroke-linejoin="round"></path>
                <path d="M27.5680645,1.85980247 L25.7132258,5.35792593" id="Stroke-14" stroke="#1B325E" stroke-linecap="round" stroke-linejoin="round"></path>
                <path d="M32.6436774,6.06146667 L29.5236774,8.51317037" id="Stroke-15" stroke="#1B325E" stroke-linecap="round" stroke-linejoin="round"></path>
                <path d="M12.6543871,1.86570864 L14.5137419,5.36319012" id="Stroke-16" stroke="#1B325E" stroke-linecap="round" stroke-linejoin="round"></path>
                <path d="M7.18058065,6.60252346 L10.4031613,8.92005432" id="Stroke-17" stroke="#1B325E" stroke-linecap="round" stroke-linejoin="round"></path>
            </g>
        </g>
    </g>
</svg>