<?xml version="1.0" encoding="UTF-8"?>
<svg width="16px" height="14px" viewBox="0 0 16 14" version="1.1" xmlns="http://www.w3.org/2000/svg" xmlns:xlink="http://www.w3.org/1999/xlink">
    <!-- Generator: sketchtool 56.3 (101010) - https://sketch.com -->
    <title>A82FC0C1-1AB4-433E-8248-E98E45D59E4C</title>
    <desc>Created with sketchtool.</desc>
    <g id="Mobile-Final" stroke="none" stroke-width="1" fill="none" fill-rule="evenodd">
        <g id="14-Payment-Notification" transform="translate(-106.000000, -408.000000)" fill="#D72716" fill-rule="nonzero">
            <g id="form" transform="translate(0.000000, 384.000000)">
                <g id="fund-name">
                    <g id="Trxn-failed" transform="translate(106.000000, 24.000000)">
                        <path d="M15.6530023,12.4161247 L8.79203233,0.530674365 C8.3943418,-0.158009238 7.39849885,-0.158009238 7.00080831,0.530674365 L0.139838337,12.4161247 C-0.257852194,13.1048083 0.240069284,13.9680878 1.03545035,13.9680878 L14.7573903,13.9680878 C15.5527714,13.9680878 16.0506928,13.1048083 15.6530023,12.4161247 Z M7.90612009,4.19072055 C8.34584296,4.19072055 8.70150115,4.55607852 8.68856813,4.99580139 L8.55923788,9.50942725 C8.54953811,9.86508545 8.25854503,10.1463788 7.90288684,10.1463788 C7.54722864,10.1463788 7.25623557,9.86185219 7.2465358,9.50942725 L7.1204388,4.99580139 C7.11073903,4.55607852 7.46316397,4.19072055 7.90612009,4.19072055 Z M7.89642032,12.3546928 C7.44699769,12.3546928 7.08163972,11.9893349 7.08163972,11.5399122 C7.08163972,11.0904896 7.44699769,10.7251316 7.89642032,10.7251316 C8.34584296,10.7251316 8.71120092,11.0904896 8.71120092,11.5399122 C8.71120092,11.9893349 8.34584296,12.3546928 7.89642032,12.3546928 Z" id="Shape"></path>
                    </g>
                </g>
            </g>
        </g>
    </g>
</svg>