<?xml version="1.0" encoding="UTF-8"?>
<svg width="37px" height="11px" viewBox="0 0 37 11" version="1.1" xmlns="http://www.w3.org/2000/svg" xmlns:xlink="http://www.w3.org/1999/xlink">
    <!-- Generator: sketchtool 56.3 (101010) - https://sketch.com -->
    <title>E472FF2C-AD12-4DB2-A3A2-9BE2729F6032</title>
    <desc>Created with sketchtool.</desc>
    <g id="Mobile-Final" stroke="none" stroke-width="1" fill="none" fill-rule="evenodd">
        <g id="02-Saved" transform="translate(-28.000000, -364.000000)" fill-rule="nonzero">
            <g id="CC" transform="translate(16.000000, 257.000000)">
                <g id="Group-Copy" transform="translate(0.000000, 89.000000)">
                    <g id="HDFC">
                        <g id="007-visa" transform="translate(12.000000, 18.000000)">
                            <polygon id="Path" fill="#3C58BF" points="13.2763505 10.7331535 15.1154987 0.387945308 17.9891676 0.387945308 16.2074929 10.7331535"></polygon>
                            <polygon id="Path" fill="#293688" points="13.2763505 10.7331535 15.6327591 0.387945308 17.9891676 0.387945308 16.2074929 10.7331535"></polygon>
                            <path d="M26.6101745,0.502892066 C26.0354407,0.27299855 25.1158666,0.0431050342 23.966399,0.0431050342 C21.0927301,0.0431050342 19.0236884,1.47993951 19.0236884,3.54898115 C19.0236884,5.10076238 20.4605229,5.90538969 21.6099905,6.4226501 C22.7594581,6.93991051 23.1042983,7.28475078 23.1042983,7.74453782 C23.1042983,8.43421836 22.1847243,8.77905864 21.380097,8.77905864 C20.2306294,8.77905864 19.5984222,8.6066385 18.6213748,8.20432485 L18.2190611,8.03190471 L17.8167475,10.3883132 C18.506428,10.6756801 19.7708424,10.963047 21.0927301,10.963047 C24.1388192,10.963047 26.1503874,9.52621256 26.1503874,7.34222416 C26.1503874,6.1352832 25.4032335,5.21570914 23.6790321,4.46855521 C22.6445113,3.9512948 22.0123041,3.66392791 22.0123041,3.1466675 C22.0123041,2.68688047 22.5295646,2.22709343 23.6790321,2.22709343 C24.6560796,2.22709343 25.3457601,2.39951357 25.8630205,2.62940709 L26.1503874,2.74435385 L26.6101745,0.502892066 L26.6101745,0.502892066 Z" id="Path" fill="#3C58BF"></path>
                            <path d="M26.6101745,0.502892066 C26.0354407,0.27299855 25.1158666,0.0431050342 23.966399,0.0431050342 C21.0927301,0.0431050342 19.5409488,1.47993951 19.5409488,3.54898115 C19.5409488,5.10076238 20.4605229,5.90538969 21.6099905,6.4226501 C22.7594581,6.93991051 23.1042983,7.28475078 23.1042983,7.74453782 C23.1042983,8.43421836 22.1847243,8.77905864 21.380097,8.77905864 C20.2306294,8.77905864 19.5984222,8.6066385 18.6213748,8.20432485 L18.2190611,8.03190471 L17.8167475,10.3883132 C18.506428,10.6756801 19.7708424,10.963047 21.0927301,10.963047 C24.1388192,10.963047 26.1503874,9.52621256 26.1503874,7.34222416 C26.1503874,6.1352832 25.4032335,5.21570914 23.6790321,4.46855521 C22.6445113,3.9512948 22.0123041,3.66392791 22.0123041,3.1466675 C22.0123041,2.68688047 22.5295646,2.22709343 23.6790321,2.22709343 C24.6560796,2.22709343 25.3457601,2.39951357 25.8630205,2.62940709 L26.1503874,2.74435385 L26.6101745,0.502892066 L26.6101745,0.502892066 Z" id="Path" fill="#293688"></path>
                            <path d="M31.5528851,0.387945308 C30.8632045,0.387945308 30.3459441,0.445418687 30.0585772,1.13509923 L25.7480738,10.7331535 L28.8516362,10.7331535 L29.42637,9.00895215 L33.1046663,9.00895215 L33.4495066,10.7331535 L36.2082287,10.7331535 L33.7943468,0.387945308 L31.5528851,0.387945308 Z M30.2309973,7.28475078 C30.4034175,6.76749037 31.3804649,4.2386617 31.3804649,4.2386617 C31.3804649,4.2386617 31.6103584,3.60645453 31.7827786,3.20414088 L31.9551987,4.18118832 C31.9551987,4.18118832 32.5299325,6.76749037 32.6448793,7.34222416 L30.2309973,7.34222416 L30.2309973,7.28475078 Z" id="Shape" fill="#3C58BF"></path>
                            <path d="M32.2425656,0.387945308 C31.5528851,0.387945308 31.0356246,0.445418687 30.7482577,1.13509923 L25.7480738,10.7331535 L28.8516362,10.7331535 L29.42637,9.00895215 L33.1046663,9.00895215 L33.4495066,10.7331535 L36.2082287,10.7331535 L33.7943468,0.387945308 L32.2425656,0.387945308 Z M30.2309973,7.28475078 C30.4608908,6.71001699 31.3804649,4.2386617 31.3804649,4.2386617 C31.3804649,4.2386617 31.6103584,3.60645453 31.7827786,3.20414088 L31.9551987,4.18118832 C31.9551987,4.18118832 32.5299325,6.76749037 32.6448793,7.34222416 L30.2309973,7.34222416 L30.2309973,7.28475078 Z" id="Shape" fill="#293688"></path>
                            <path d="M7.98879968,7.62959106 L7.70143278,6.1352832 C7.18417237,4.41108184 5.51744438,2.51446033 3.67829625,1.59488627 L6.26459831,10.7906269 L9.36816077,10.7906269 L14.0235045,0.445418687 L10.919942,0.445418687 L7.98879968,7.62959106 Z" id="Path" fill="#3C58BF"></path>
                            <path d="M7.98879968,7.62959106 L7.70143278,6.1352832 C7.18417237,4.41108184 5.51744438,2.51446033 3.67829625,1.59488627 L6.26459831,10.7906269 L9.36816077,10.7906269 L14.0235045,0.445418687 L11.4946758,0.445418687 L7.98879968,7.62959106 Z" id="Path" fill="#293688"></path>
                            <path d="M0,0.387945308 L0.517260411,0.502892066 C4.19555666,1.36499275 6.72438534,3.54898115 7.70143278,6.1352832 L6.66691196,1.25004599 C6.49449182,0.560365445 5.97723141,0.387945308 5.34502424,0.387945308 L0,0.387945308 L0,0.387945308 Z" id="Path" fill="#FFBC00"></path>
                            <path d="M0,0.387945308 L0,0.387945308 C3.67829625,1.25004599 6.72438534,3.49150777 7.70143278,6.07780983 L6.72438534,1.99719992 C6.5519652,1.30751937 5.97723141,0.905205719 5.34502424,0.905205719 L0,0.387945308 Z" id="Path" fill="#F7981D"></path>
                            <path d="M0,0.387945308 L0,0.387945308 C3.67829625,1.25004599 6.72438534,3.49150777 7.70143278,6.07780983 L7.01175223,3.83634805 C6.8393321,3.1466675 6.60943858,2.45698695 5.80481128,2.16962006 L0,0.387945308 Z" id="Path" fill="#ED7C00"></path>
                            <g id="Group" transform="translate(3.735770, 1.508676)" fill="#051244">
                                <path d="M7.12669899,5.77607459 L5.17260411,3.8219797 L4.25303004,6.0059681 L4.02313653,4.56913363 C3.50587612,2.84493226 1.83914813,0.948310753 0,0.0287366895 L2.58630205,9.22447732 L5.68986452,9.22447732 L7.12669899,5.77607459 Z" id="Path"></path>
                                <polygon id="Path" points="12.4717232 9.22447732 10.0003679 6.69564865 9.54058091 9.22447732"></polygon>
                                <path d="M19.0811618,5.66112783 L19.0811618,5.66112783 C19.3110553,5.89102134 19.4260021,6.06344148 19.3685287,6.293335 C19.3685287,6.98301554 18.4489546,7.32785582 17.6443273,7.32785582 C16.4948598,7.32785582 15.8626526,7.15543568 14.8856052,6.75312203 L14.4832915,6.58070189 L14.0809778,8.93711043 C14.7706584,9.22447732 16.0350727,9.51184422 17.3569604,9.51184422 C19.1961086,9.51184422 20.6904164,8.99458381 21.5525171,8.07500974 L19.0811618,5.66112783 Z" id="Path"></path>
                                <path d="M22.4146178,9.22447732 L25.1158666,9.22447732 L25.6906004,7.50027595 L29.3688966,7.50027595 L29.7137369,9.22447732 L32.4724591,9.22447732 L31.4954117,5.02892066 L28.0470089,1.69546468 L28.2194291,2.61503874 C28.2194291,2.61503874 28.7941629,5.2013408 28.9091096,5.77607459 L26.4952277,5.77607459 C26.7251212,5.2013408 27.6446953,2.7299855 27.6446953,2.7299855 C27.6446953,2.7299855 27.8745888,2.09777833 28.0470089,1.69546468" id="Path"></path>
                            </g>
                        </g>
                    </g>
                </g>
            </g>
        </g>
    </g>
</svg>